
{
	"buildFiles" : 
	[
		"/Users/singularapple/Documents/sangular_project/Android/android-common-library/app/CMakeLists.txt"
	],
	"cleanCommands" : 
	[
		"/Users/singularapple/Applications/program_file/android-sdk-macosx/cmake/3.6.3155560/bin/cmake --build /Users/singularapple/Documents/sangular_project/Android/android-common-library/app/.externalNativeBuild/cmake/devRelease/x86 --target clean"
	],
	"cppFileExtensions" : [ "cpp" ],
	"libraries" : 
	{
		"native-lib-Release-x86" : 
		{
			"abi" : "x86",
			"artifactName" : "native-lib",
			"buildCommand" : "/Users/singularapple/Applications/program_file/android-sdk-macosx/cmake/3.6.3155560/bin/cmake --build /Users/singularapple/Documents/sangular_project/Android/android-common-library/app/.externalNativeBuild/cmake/devRelease/x86 --target native-lib",
			"buildType" : "release",
			"files" : 
			[
				
				{
					"flags" : "  --target=i686-none-linux-android --gcc-toolchain=/Users/singularapple/Applications/program_file/android-sdk-macosx/ndk-bundle/toolchains/x86-4.9/prebuilt/darwin-x86_64 --sysroot=/Users/singularapple/Applications/program_file/android-sdk-macosx/ndk-bundle/sysroot  -Dnative_lib_EXPORTS -isystem /Users/singularapple/Applications/program_file/android-sdk-macosx/ndk-bundle/sources/cxx-stl/gnu-libstdc++/4.9/include -isystem /Users/singularapple/Applications/program_file/android-sdk-macosx/ndk-bundle/sources/cxx-stl/gnu-libstdc++/4.9/libs/x86/include -isystem /Users/singularapple/Applications/program_file/android-sdk-macosx/ndk-bundle/sources/cxx-stl/gnu-libstdc++/4.9/include/backward  -isystem /Users/singularapple/Applications/program_file/android-sdk-macosx/ndk-bundle/sysroot/usr/include/i686-linux-android -D__ANDROID_API__=23 -g -DANDROID -ffunction-sections -funwind-tables -fstack-protector-strong -no-canonical-prefixes -mstackrealign -Wa,--noexecstack -Wformat -Werror=format-security   -O2 -DNDEBUG  -fPIC    -c ",
					"src" : "/Users/singularapple/Documents/sangular_project/Android/android-common-library/app/src/main/jni/native-lib.cpp",
					"workingDirectory" : "/Users/singularapple/Documents/sangular_project/Android/android-common-library/app/.externalNativeBuild/cmake/devRelease/x86"
				}
			],
			"output" : "/Users/singularapple/Documents/sangular_project/Android/android-common-library/app/build/intermediates/cmake/dev/release/obj/x86/libnative-lib.so",
			"toolchain" : "3113331022997817899"
		}
	},
	"toolchains" : 
	{
		"3113331022997817899" : 
		{
			"cCompilerExecutable" : "/Users/singularapple/Applications/program_file/android-sdk-macosx/ndk-bundle/toolchains/llvm/prebuilt/darwin-x86_64/bin/clang",
			"cppCompilerExecutable" : "/Users/singularapple/Applications/program_file/android-sdk-macosx/ndk-bundle/toolchains/llvm/prebuilt/darwin-x86_64/bin/clang++"
		}
	}
}
